id,prescriber_last_name,prescriber_first_name,drug_name,drug_cost
1104823962,ACOSTA,JOSE,CEFUROXIME,784.39
1104823962,ACOSTA,JOSE,CEPHALEXIN,417.84
1104823962,ACOSTA,JOSE,CHLORHEXIDINE GLUCONATE,58.06
1104823962,ACOSTA,JOSE,CIPROFLOXACIN HCL,377.64
1104823962,ACOSTA,JOSE,CITALOPRAM HBR,961.55
1104823962,ACOSTA,JOSE,CLOBETASOL PROPIONATE,5019.72
1104823962,ACOSTA,JOSE,CLONAZEPAM,318.99
1104823962,ACOSTA,JOSE,CLONIDINE HCL,367.98
1104823962,ACOSTA,JOSE,CLOPIDOGREL,1973.99
1104823962,ACOSTA,JOSE,CLOTRIMAZOLE-BETAMETHASONE,604.88
1104823962,ACOSTA,JOSE,COMBIVENT RESPIMAT,7235.15
1104823962,ACOSTA,JOSE,CRESTOR,12568.8
1104823962,ACOSTA,JOSE,CYCLOBENZAPRINE HCL,156.09
1104823962,ACOSTA,JOSE,DIAZEPAM,299.54
1104823962,ACOSTA,JOSE,DICLOFENAC SODIUM,264.81
1104823962,ACOSTA,JOSE,DIGOX,1004.19
1104823962,ACOSTA,JOSE,DIGOXIN,1284.98
1104823962,ACOSTA,JOSE,DILTIAZEM HCL,409.94
1104823962,ACOSTA,JOSE,DONEPEZIL HCL,1921.58
1104823962,ACOSTA,JOSE,DOXAZOSIN MESYLATE,2130.95
1104823962,ACOSTA,JOSE,DULOXETINE HCL,1202.23
1104823962,ACOSTA,JOSE,ENALAPRIL MALEATE,1235.73
1104823962,ACOSTA,JOSE,ESCITALOPRAM OXALATE,940.14
1104823962,ACOSTA,JOSE,ESZOPICLONE,665.08
1104823962,ACOSTA,JOSE,FAMOTIDINE,119.37
1104823962,ACOSTA,JOSE,FENOFIBRATE,533.98
1104823962,ACOSTA,JOSE,FENOFIBRIC ACID,970.09
1104823962,ACOSTA,JOSE,FENTANYL,2428.72
1104823962,ACOSTA,JOSE,FINASTERIDE,341.57
1104823962,ACOSTA,JOSE,FLUCONAZOLE,98.26
1104823962,ACOSTA,JOSE,FLUOXETINE HCL,103.83
1104823962,ACOSTA,JOSE,FLUTICASONE PROPIONATE,856.02
1104823962,ACOSTA,JOSE,FUROSEMIDE,1325.42
1104823962,ACOSTA,JOSE,GABAPENTIN,2360.86
1104823962,ACOSTA,JOSE,GLIMEPIRIDE,1116.8
1104823962,ACOSTA,JOSE,GLIPIZIDE,431.85
1104823962,ACOSTA,JOSE,GLIPIZIDE ER,119.29
1104823962,ACOSTA,JOSE,GLYBURIDE,413.18
1104823962,ACOSTA,JOSE,HUMALOG MIX 75-25 KWIKPEN,5108.25
1104823962,ACOSTA,JOSE,HYDRALAZINE HCL,156.14
1104823962,ACOSTA,JOSE,HYDROCHLOROTHIAZIDE,641.41
1104823962,ACOSTA,JOSE,HYDROCODONE-ACETAMINOPHEN,12829.35
1104823962,ACOSTA,JOSE,IBUPROFEN,613.67
1104823962,ACOSTA,JOSE,INDAPAMIDE,228.98
1104823962,ACOSTA,JOSE,ISOSORBIDE DINITRATE,405.65
1104823962,ACOSTA,JOSE,ISOSORBIDE MONONITRATE ER,905.5
1104823962,ACOSTA,JOSE,JANUVIA,16952.71
1104823962,ACOSTA,JOSE,KLOR-CON M10,299.34
1104823962,ACOSTA,JOSE,KLOR-CON M20,682.55
1104823962,ACOSTA,JOSE,LANTUS SOLOSTAR,22641.68
1104823962,ACOSTA,JOSE,LEVEMIR FLEXTOUCH,18672.47
1104823962,ACOSTA,JOSE,LEVETIRACETAM,94.33
1104823962,ACOSTA,JOSE,LEVOCETIRIZINE DIHYDROCHLORIDE,274.81
1104823962,ACOSTA,JOSE,LEVOFLOXACIN,977.06
1104823962,ACOSTA,JOSE,LEVOTHYROXINE SODIUM,6726.49
1104823962,ACOSTA,JOSE,LISINOPRIL,2448.19
1104823962,ACOSTA,JOSE,LISINOPRIL-HYDROCHLOROTHIAZIDE,623.65
1104823962,ACOSTA,JOSE,LORAZEPAM,966.3
1104823962,ACOSTA,JOSE,LOSARTAN POTASSIUM,1509.28
1104823962,ACOSTA,JOSE,LOSARTAN-HYDROCHLOROTHIAZIDE,524.87
1104823962,ACOSTA,JOSE,LOVASTATIN,721.71
1104823962,ACOSTA,JOSE,LYRICA,26297.98
1104823962,ACOSTA,JOSE,MECLIZINE HCL,140.88
1104823962,ACOSTA,JOSE,MELOXICAM,435.64
1104823962,ACOSTA,JOSE,METFORMIN HCL,1405.91
1104823962,ACOSTA,JOSE,METFORMIN HCL ER,2574.24
1104823962,ACOSTA,JOSE,METHYCLOTHIAZIDE,473.28
1104823962,ACOSTA,JOSE,METHYLPREDNISOLONE,1295.29
1104823962,ACOSTA,JOSE,METOPROLOL SUCCINATE,3732.08
1104823962,ACOSTA,JOSE,METOPROLOL TARTRATE,1881.09
1104823962,ACOSTA,JOSE,METRONIDAZOLE,258.91
1104823962,ACOSTA,JOSE,MIRTAZAPINE,603.16
1104823962,ACOSTA,JOSE,MONTELUKAST SODIUM,544.19
1104823962,ACOSTA,JOSE,MUPIROCIN,274.95
1104823962,ACOSTA,JOSE,NAMENDA XR,7333.6
1104823962,ACOSTA,JOSE,NEXIUM,12443.87
1104823962,ACOSTA,JOSE,NIFEDIPINE ER,2200.31
1104823962,ACOSTA,JOSE,NORTRIPTYLINE HCL,146.36
1104823962,ACOSTA,JOSE,NOVOLIN 70-30,8937.92
1104823962,ACOSTA,JOSE,NOVOLOG,3941.09
1104823962,ACOSTA,JOSE,NYSTATIN,193.81
1104823962,ACOSTA,JOSE,OMEPRAZOLE,3234.78
1104823962,ACOSTA,JOSE,OXYBUTYNIN CHLORIDE,997.59
1104823962,ACOSTA,JOSE,OXYBUTYNIN CHLORIDE ER,699.97
1104823962,ACOSTA,JOSE,OXYCODONE-ACETAMINOPHEN,13441.01
1104823962,ACOSTA,JOSE,OXYCONTIN,3061.78
1104823962,ACOSTA,JOSE,PANTOPRAZOLE SODIUM,2088.66
1104823962,ACOSTA,JOSE,PAROXETINE HCL,421.1
1104823962,ACOSTA,JOSE,PIOGLITAZONE HCL,959.86
1104823962,ACOSTA,JOSE,POTASSIUM CHLORIDE,1867.33
1104823962,ACOSTA,JOSE,PRAMIPEXOLE DIHYDROCHLORIDE,222.74
1104823962,ACOSTA,JOSE,PRAVASTATIN SODIUM,1999.0
1104823962,ACOSTA,JOSE,PREDNISONE,449.07
1104823962,ACOSTA,JOSE,PREMARIN,4203.98
1104823962,ACOSTA,JOSE,PROAIR HFA,4062.87
1104823962,ACOSTA,JOSE,QUINAPRIL HCL,358.33
1104823962,ACOSTA,JOSE,RABEPRAZOLE SODIUM,1630.45
1104823962,ACOSTA,JOSE,RAMIPRIL,706.22
1104823962,ACOSTA,JOSE,RANITIDINE HCL,470.95
1104823962,ACOSTA,JOSE,RISPERIDONE,48.1
1104823962,ACOSTA,JOSE,ROPINIROLE HCL,125.25
1104823962,ACOSTA,JOSE,SERTRALINE HCL,411.64
1104823962,ACOSTA,JOSE,SIMVASTATIN,3384.15
1104823962,ACOSTA,JOSE,SPIRIVA,17646.79
1104823962,ACOSTA,JOSE,SPIRONOLACTONE,236.56
1104823962,ACOSTA,JOSE,SULFAMETHOXAZOLE-TRIMETHOPRIM,65.89
1104823962,ACOSTA,JOSE,SYMBICORT,5429.12
1104823962,ACOSTA,JOSE,SYNTHROID,1450.1
1104823962,ACOSTA,JOSE,TAMOXIFEN CITRATE,483.73
1104823962,ACOSTA,JOSE,TAMSULOSIN HCL,3758.6
1104823962,ACOSTA,JOSE,TEMAZEPAM,3056.91
1104823962,ACOSTA,JOSE,TERAZOSIN HCL,269.39
1104823962,ACOSTA,JOSE,TRAMADOL HCL,1733.63
1104823962,ACOSTA,JOSE,TRAMADOL HCL-ACETAMINOPHEN,595.08
1104823962,ACOSTA,JOSE,TRAZODONE HCL,297.42
1104823962,ACOSTA,JOSE,TRIAMTERENE-HYDROCHLOROTHIAZID,806.53
1104823962,ACOSTA,JOSE,VALSARTAN,2268.06
1104823962,ACOSTA,JOSE,VALSARTAN-HYDROCHLOROTHIAZIDE,2228.64
1104823962,ACOSTA,JOSE,VENLAFAXINE HCL,123.31
1104823962,ACOSTA,JOSE,VENLAFAXINE HCL ER,121.1
1104823962,ACOSTA,JOSE,VENTOLIN HFA,1397.06
1104823962,ACOSTA,JOSE,VERAPAMIL ER,563.97
1104823962,ACOSTA,JOSE,VERAPAMIL HCL,262.01
1104823962,ACOSTA,JOSE,VOLTAREN,939.34
1104823962,ACOSTA,JOSE,WARFARIN SODIUM,1053.32
1104823962,ACOSTA,JOSE,XARELTO,4378.03
1104823962,ACOSTA,JOSE,ZOLPIDEM TARTRATE,2990.1
1831147933,ACOSTA,JOSE,ACETYLCYSTEINE,859.35
1831147933,ACOSTA,JOSE,ADVAIR DISKUS,90698.86
1831147933,ACOSTA,JOSE,ADVAIR HFA,26008.47
1831147933,ACOSTA,JOSE,ALLOPURINOL,120.39
1831147933,ACOSTA,JOSE,ASMANEX,8624.54
1831147933,ACOSTA,JOSE,AZITHROMYCIN,1079.67
1831147933,ACOSTA,JOSE,COMBIVENT RESPIMAT,5162.07
1831147933,ACOSTA,JOSE,DALIRESP,26352.91
1831147933,ACOSTA,JOSE,DULERA,7432.73
1831147933,ACOSTA,JOSE,FLOVENT HFA,3414.86
1831147933,ACOSTA,JOSE,FUROSEMIDE,394.4
1831147933,ACOSTA,JOSE,MONTELUKAST SODIUM,3646.0
1831147933,ACOSTA,JOSE,MOXIFLOXACIN HCL,1717.74
1831147933,ACOSTA,JOSE,NEXIUM,6153.76
1831147933,ACOSTA,JOSE,OMEPRAZOLE,918.23
1831147933,ACOSTA,JOSE,PANTOPRAZOLE SODIUM,241.54
1831147933,ACOSTA,JOSE,PREDNISONE,1201.48
1831147933,ACOSTA,JOSE,PROAIR HFA,5474.8
1831147933,ACOSTA,JOSE,QVAR,2379.99
1831147933,ACOSTA,JOSE,RANITIDINE HCL,647.95
1831147933,ACOSTA,JOSE,SILDENAFIL,4123.41
1831147933,ACOSTA,JOSE,SOTALOL,135.72
1831147933,ACOSTA,JOSE,SPIRIVA,71688.25
1831147933,ACOSTA,JOSE,SPIRONOLACTONE,87.56
1831147933,ACOSTA,JOSE,SYMBICORT,28977.27
1831147933,ACOSTA,JOSE,THEOPHYLLINE ANHYDROUS,289.07
1831147933,ACOSTA,JOSE,TUDORZA PRESSAIR,13745.0
1831147933,ACOSTA,JOSE,VENTOLIN HFA,2631.51
1831147933,ACOSTA,JOSE,WARFARIN SODIUM,157.07
1831147933,ACOSTA,JOSE,ZAFIRLUKAST,1482.56
1710976915,ACOSTA,JOSEPH,AGGRENOX,10529.46
1710976915,ACOSTA,JOSEPH,AMANTADINE,1852.43
1710976915,ACOSTA,JOSEPH,AMITRIPTYLINE HCL,678.83
1710976915,ACOSTA,JOSEPH,AMLODIPINE BESYLATE,89.2
1710976915,ACOSTA,JOSEPH,AVONEX PEN,69420.0
1710976915,ACOSTA,JOSEPH,AZILECT,12234.75
1710976915,ACOSTA,JOSEPH,BACLOFEN,6038.13
1710976915,ACOSTA,JOSEPH,BETASERON,65022.5
1710976915,ACOSTA,JOSEPH,BUTALBITAL-ACETAMINOPHEN-CAFFE,1939.14
1710976915,ACOSTA,JOSEPH,CARBAMAZEPINE,3958.52
1710976915,ACOSTA,JOSEPH,CARBAMAZEPINE ER,2401.79
1710976915,ACOSTA,JOSEPH,CARBIDOPA-LEVODOPA,2373.12
1710976915,ACOSTA,JOSEPH,CARBIDOPA-LEVODOPA ER,2126.38
1710976915,ACOSTA,JOSEPH,CITALOPRAM HBR,108.9
1710976915,ACOSTA,JOSEPH,CLONAZEPAM,692.19
1710976915,ACOSTA,JOSEPH,CLOPIDOGREL,823.25
1710976915,ACOSTA,JOSEPH,DIVALPROEX SODIUM,485.14
1710976915,ACOSTA,JOSEPH,DONEPEZIL HCL,1937.03
1710976915,ACOSTA,JOSEPH,DULOXETINE HCL,650.43
1710976915,ACOSTA,JOSEPH,EXELON,20409.71
1710976915,ACOSTA,JOSEPH,GABAPENTIN,7620.04
1710976915,ACOSTA,JOSEPH,GLYCOPYRROLATE,495.8
1710976915,ACOSTA,JOSEPH,HORIZANT,3084.43
1710976915,ACOSTA,JOSEPH,HYDROCODONE-ACETAMINOPHEN,618.88
1710976915,ACOSTA,JOSEPH,KEPPRA,16196.12
1710976915,ACOSTA,JOSEPH,LAMOTRIGINE,137.89
1710976915,ACOSTA,JOSEPH,LEVETIRACETAM,4827.75
1710976915,ACOSTA,JOSEPH,LEVETIRACETAM ER,1018.11
1710976915,ACOSTA,JOSEPH,LIDOCAINE-PRILOCAINE,2283.72
1710976915,ACOSTA,JOSEPH,MELOXICAM,115.94
1710976915,ACOSTA,JOSEPH,METHOCARBAMOL,308.29
1710976915,ACOSTA,JOSEPH,NABUMETONE,483.05
1710976915,ACOSTA,JOSEPH,NAMENDA,10487.4
1710976915,ACOSTA,JOSEPH,NAMENDA XR,26215.55
1710976915,ACOSTA,JOSEPH,NORTRIPTYLINE HCL,287.42
1710976915,ACOSTA,JOSEPH,OXCARBAZEPINE,896.01
1710976915,ACOSTA,JOSEPH,PHENOBARBITAL,476.74
1710976915,ACOSTA,JOSEPH,PHENYTEK,1948.0
1710976915,ACOSTA,JOSEPH,PHENYTOIN SODIUM EXTENDED,1565.13
1710976915,ACOSTA,JOSEPH,PRAMIPEXOLE DIHYDROCHLORIDE,837.71
1710976915,ACOSTA,JOSEPH,PREDNISONE,153.3
1710976915,ACOSTA,JOSEPH,PRIMIDONE,955.53
1710976915,ACOSTA,JOSEPH,PROPRANOLOL HCL ER,3146.46
1710976915,ACOSTA,JOSEPH,PYRIDOSTIGMINE BROMIDE,948.78
1710976915,ACOSTA,JOSEPH,QUETIAPINE FUMARATE,448.88
1710976915,ACOSTA,JOSEPH,RIVASTIGMINE,1194.25
1710976915,ACOSTA,JOSEPH,ROPINIROLE HCL,893.74
1710976915,ACOSTA,JOSEPH,SERTRALINE HCL,143.05
1710976915,ACOSTA,JOSEPH,TIZANIDINE HCL,3571.42
1710976915,ACOSTA,JOSEPH,TOPIRAMATE,486.73
1710976915,ACOSTA,JOSEPH,TRAMADOL HCL,246.65
1710976915,ACOSTA,JOSEPH,TRAZODONE HCL,87.67
1710976915,ACOSTA,JOSEPH,VIMPAT,7649.08
1710976915,ACOSTA,JOSEPH,ZONISAMIDE,732.64
1720060551,ACOSTA,JOSEPH,ESTRADIOL,92.23
1720060551,ACOSTA,JOSEPH,MEDROXYPROGESTERONE ACETATE,106.66
1720060551,ACOSTA,JOSEPH,RALOXIFENE HCL,2822.02
1720060551,ACOSTA,JOSEPH,VENLAFAXINE HCL ER,74.28
1316919350,ACOSTA,JUAN,CLOPIDOGREL,686.23
1316919350,ACOSTA,JUAN,LEVOFLOXACIN,256.23
1316919350,ACOSTA,JUAN,METOPROLOL TARTRATE,217.27
1316919350,ACOSTA,JUAN,PREDNISONE,174.89
1316940968,ACOSTA,JUAN,CEPHALEXIN,110.11
1316940968,ACOSTA,JUAN,HYDROCODONE-ACETAMINOPHEN,240.95
1316940968,ACOSTA,JUAN,NAPROXEN,159.04
1316940968,ACOSTA,JUAN,PREDNISONE,65.62
1467423772,ACOSTA,JUAN,ADVAIR DISKUS,4798.74
1467423772,ACOSTA,JUAN,ALENDRONATE SODIUM,226.08
1467423772,ACOSTA,JUAN,ALLOPURINOL,433.8
1467423772,ACOSTA,JUAN,ALPRAZOLAM,118.77
1467423772,ACOSTA,JUAN,AMLODIPINE BESYLATE,788.91
1467423772,ACOSTA,JUAN,AMOXICILLIN-CLAVULANATE POTASS,275.16
1467423772,ACOSTA,JUAN,ANASTROZOLE,86.2
1467423772,ACOSTA,JUAN,ATENOLOL,521.31
1467423772,ACOSTA,JUAN,ATORVASTATIN CALCIUM,1129.71
1467423772,ACOSTA,JUAN,AVODART,3940.11
1467423772,ACOSTA,JUAN,AZELASTINE HCL,916.89
1467423772,ACOSTA,JUAN,AZITHROMYCIN,317.51
1467423772,ACOSTA,JUAN,BACLOFEN,631.42
1467423772,ACOSTA,JUAN,BENAZEPRIL HCL,699.11
1467423772,ACOSTA,JUAN,CARVEDILOL,380.82
1467423772,ACOSTA,JUAN,CIPROFLOXACIN HCL,372.21
1467423772,ACOSTA,JUAN,CLONIDINE HCL,111.86
1467423772,ACOSTA,JUAN,CLOPIDOGREL,453.59
1467423772,ACOSTA,JUAN,CYCLOBENZAPRINE HCL,58.61
1467423772,ACOSTA,JUAN,DICLOFENAC SODIUM,308.34
1467423772,ACOSTA,JUAN,DICYCLOMINE HCL,107.6
1467423772,ACOSTA,JUAN,DULOXETINE HCL,1050.75
1467423772,ACOSTA,JUAN,ENALAPRIL MALEATE,1912.18
1467423772,ACOSTA,JUAN,FENOFIBRATE,1554.37
1467423772,ACOSTA,JUAN,FENOFIBRATE,2138.69
1467423772,ACOSTA,JUAN,FENOFIBRATE,1497.51
1467423772,ACOSTA,JUAN,FINASTERIDE,128.51
1467423772,ACOSTA,JUAN,FLUCONAZOLE,69.04
1467423772,ACOSTA,JUAN,FLUOXETINE HCL,51.03
1467423772,ACOSTA,JUAN,FLUTICASONE PROPIONATE,582.87
1467423772,ACOSTA,JUAN,FUROSEMIDE,269.01
1467423772,ACOSTA,JUAN,GABAPENTIN,1094.21
1467423772,ACOSTA,JUAN,GEMFIBROZIL,185.88
1467423772,ACOSTA,JUAN,GLIMEPIRIDE,183.54
1467423772,ACOSTA,JUAN,GLIPIZIDE,636.39
1467423772,ACOSTA,JUAN,GLYBURIDE,283.02
1467423772,ACOSTA,JUAN,GLYBURIDE-METFORMIN HCL,111.48
1467423772,ACOSTA,JUAN,HYDROCHLOROTHIAZIDE,773.51
1467423772,ACOSTA,JUAN,HYDROCODONE-ACETAMINOPHEN,457.5
1467423772,ACOSTA,JUAN,IBUPROFEN,843.51
1467423772,ACOSTA,JUAN,INVOKANA,6361.64
1467423772,ACOSTA,JUAN,JANUVIA,30186.05
1467423772,ACOSTA,JUAN,KETOCONAZOLE,447.77
1467423772,ACOSTA,JUAN,LANSOPRAZOLE,220.42
1467423772,ACOSTA,JUAN,LANTUS,22126.33
1467423772,ACOSTA,JUAN,LANTUS SOLOSTAR,11575.74
1467423772,ACOSTA,JUAN,LEVOTHYROXINE SODIUM,2366.78
1467423772,ACOSTA,JUAN,LISINOPRIL,1843.92
1467423772,ACOSTA,JUAN,LISINOPRIL-HYDROCHLOROTHIAZIDE,396.92
1467423772,ACOSTA,JUAN,LOSARTAN POTASSIUM,956.13
1467423772,ACOSTA,JUAN,LOSARTAN-HYDROCHLOROTHIAZIDE,88.14
1467423772,ACOSTA,JUAN,LOVASTATIN,438.09
1467423772,ACOSTA,JUAN,MECLIZINE HCL,157.29
1467423772,ACOSTA,JUAN,MELOXICAM,1412.31
1467423772,ACOSTA,JUAN,METFORMIN HCL,2662.86
1467423772,ACOSTA,JUAN,METHYLPREDNISOLONE,490.9
1467423772,ACOSTA,JUAN,METOPROLOL SUCCINATE,576.42
1467423772,ACOSTA,JUAN,METOPROLOL TARTRATE,194.24
1467423772,ACOSTA,JUAN,MONTELUKAST SODIUM,550.39
1467423772,ACOSTA,JUAN,NAPHAZOLINE HCL,162.25
1467423772,ACOSTA,JUAN,NAPROXEN,405.8
1467423772,ACOSTA,JUAN,OMEGA-3 ACID ETHYL ESTERS,2677.89
1467423772,ACOSTA,JUAN,OMEPRAZOLE,2138.71
1467423772,ACOSTA,JUAN,PANTOPRAZOLE SODIUM,95.47
1467423772,ACOSTA,JUAN,PAROXETINE HCL,85.38
1467423772,ACOSTA,JUAN,PENTOXIFYLLINE,275.14
1467423772,ACOSTA,JUAN,PIOGLITAZONE HCL,400.69
1467423772,ACOSTA,JUAN,POLYETHYLENE GLYCOL 3350,535.44
1467423772,ACOSTA,JUAN,POTASSIUM CHLORIDE,536.96
1467423772,ACOSTA,JUAN,PRAVASTATIN SODIUM,354.84
1467423772,ACOSTA,JUAN,PROPRANOLOL HCL ER,561.0
1467423772,ACOSTA,JUAN,RALOXIFENE HCL,1718.49
1467423772,ACOSTA,JUAN,RAMIPRIL,216.47
1467423772,ACOSTA,JUAN,RANITIDINE HCL,174.0
1467423772,ACOSTA,JUAN,SIMVASTATIN,1892.58
1467423772,ACOSTA,JUAN,SURE COMFORT,568.97
1467423772,ACOSTA,JUAN,TAMSULOSIN HCL,3593.97
1467423772,ACOSTA,JUAN,TEMAZEPAM,238.25
1467423772,ACOSTA,JUAN,TERAZOSIN HCL,81.65
1467423772,ACOSTA,JUAN,TESTOSTERONE CYPIONATE,316.14
1467423772,ACOSTA,JUAN,TRAMADOL HCL,219.34
1467423772,ACOSTA,JUAN,TRAZODONE HCL,39.65
1467423772,ACOSTA,JUAN,TRIAMCINOLONE ACETONIDE,572.08
1467423772,ACOSTA,JUAN,VENTOLIN HFA,859.45
1467423772,ACOSTA,JUAN,VOLTAREN,1637.92
1467423772,ACOSTA,JUAN,VYTORIN,3388.69
1467423772,ACOSTA,JUAN,WARFARIN SODIUM,53.52
1467423772,ACOSTA,JUAN,ZOLPIDEM TARTRATE,113.79
1194024703,ACOSTA,JUDY-ANN,ALLOPURINOL,984.89
1194024703,ACOSTA,JUDY-ANN,ALPRAZOLAM,193.83
1194024703,ACOSTA,JUDY-ANN,AMLODIPINE BESYLATE,111.86
1194024703,ACOSTA,JUDY-ANN,ATORVASTATIN CALCIUM,498.93
1194024703,ACOSTA,JUDY-ANN,BD ULTRA-FINE PEN NEEDLE,1705.59
1194024703,ACOSTA,JUDY-ANN,BYDUREON PEN,11484.67
1194024703,ACOSTA,JUDY-ANN,CARVEDILOL,474.59
1194024703,ACOSTA,JUDY-ANN,DULOXETINE HCL,540.4
1194024703,ACOSTA,JUDY-ANN,FENOFIBRATE,789.31
1194024703,ACOSTA,JUDY-ANN,FUROSEMIDE,112.9
1194024703,ACOSTA,JUDY-ANN,GABAPENTIN,412.06
1194024703,ACOSTA,JUDY-ANN,GLIMEPIRIDE,296.38
1194024703,ACOSTA,JUDY-ANN,HUMALOG,20698.44
1194024703,ACOSTA,JUDY-ANN,IBUPROFEN,47.26
1194024703,ACOSTA,JUDY-ANN,INSULIN SYRINGE,470.58
1194024703,ACOSTA,JUDY-ANN,INVOKAMET,5554.53
1194024703,ACOSTA,JUDY-ANN,INVOKANA,18210.71
1194024703,ACOSTA,JUDY-ANN,LANTUS,52800.29
1194024703,ACOSTA,JUDY-ANN,LANTUS SOLOSTAR,22148.03
1194024703,ACOSTA,JUDY-ANN,LEVEMIR,6164.43
1194024703,ACOSTA,JUDY-ANN,LEVEMIR FLEXTOUCH,12476.45
1194024703,ACOSTA,JUDY-ANN,LEVOTHYROXINE SODIUM,1247.25
1194024703,ACOSTA,JUDY-ANN,METFORMIN HCL,257.47
1194024703,ACOSTA,JUDY-ANN,METOPROLOL TARTRATE,63.68
1194024703,ACOSTA,JUDY-ANN,NIACIN ER,2901.56
1194024703,ACOSTA,JUDY-ANN,OMEGA-3 ACID ETHYL ESTERS,2144.87
1194024703,ACOSTA,JUDY-ANN,OMEPRAZOLE,272.88
1194024703,ACOSTA,JUDY-ANN,POTASSIUM CHLORIDE,305.35
1194024703,ACOSTA,JUDY-ANN,PRAVASTATIN SODIUM,682.87
1194024703,ACOSTA,JUDY-ANN,RAMIPRIL,867.61
1194024703,ACOSTA,JUDY-ANN,SIMVASTATIN,391.05
1194024703,ACOSTA,JUDY-ANN,SYNTHROID,2644.78
1194024703,ACOSTA,JUDY-ANN,TESTOSTERONE CYPIONATE,1612.37
1194024703,ACOSTA,JUDY-ANN,TORSEMIDE,1102.88
1194024703,ACOSTA,JUDY-ANN,TRAMADOL HCL,84.01
1194024703,ACOSTA,JUDY-ANN,TRANDOLAPRIL,276.49
1194024703,ACOSTA,JUDY-ANN,VERAPAMIL ER,272.3
1194024703,ACOSTA,JUDY-ANN,VICTOZA 2-PAK,9318.27
1194024703,ACOSTA,JUDY-ANN,VICTOZA 3-PAK,25886.36
1194024703,ACOSTA,JUDY-ANN,ZETIA,10028.82
1053751933,ACOSTA,KATHY,ACETAMINOPHEN-CODEINE,2654.69
1053751933,ACOSTA,KATHY,ALENDRONATE SODIUM,143.38
1053751933,ACOSTA,KATHY,ALLOPURINOL,155.92
1053751933,ACOSTA,KATHY,ALPRAZOLAM,2620.63
1053751933,ACOSTA,KATHY,AMLODIPINE BESYLATE,369.61
1053751933,ACOSTA,KATHY,AMLODIPINE BESYLATE-BENAZEPRIL,757.97
1053751933,ACOSTA,KATHY,ATENOLOL,82.83
1053751933,ACOSTA,KATHY,ATORVASTATIN CALCIUM,670.22
1053751933,ACOSTA,KATHY,AZITHROMYCIN,342.43
1053751933,ACOSTA,KATHY,BACLOFEN,405.22
1053751933,ACOSTA,KATHY,BD ULTRA-FINE PEN NEEDLE,696.31
1053751933,ACOSTA,KATHY,CARVEDILOL,60.72
1053751933,ACOSTA,KATHY,CELECOXIB,2271.71
1053751933,ACOSTA,KATHY,CIPROFLOXACIN HCL,137.33
1053751933,ACOSTA,KATHY,CITALOPRAM HBR,199.55
1053751933,ACOSTA,KATHY,CLINDAMYCIN HCL,156.85
1053751933,ACOSTA,KATHY,CLONAZEPAM,237.5
1053751933,ACOSTA,KATHY,CLONIDINE,1902.35
1053751933,ACOSTA,KATHY,CLONIDINE HCL,255.1
1053751933,ACOSTA,KATHY,CLOPIDOGREL,568.84
1053751933,ACOSTA,KATHY,CRESTOR,5804.54
1053751933,ACOSTA,KATHY,CYCLOBENZAPRINE HCL,541.58
1053751933,ACOSTA,KATHY,DIAZEPAM,166.1
1053751933,ACOSTA,KATHY,DIPHENOXYLATE-ATROPINE,446.74
1053751933,ACOSTA,KATHY,DIVALPROEX SODIUM,1305.64
1053751933,ACOSTA,KATHY,DONEPEZIL HCL,103.07
1053751933,ACOSTA,KATHY,ENALAPRIL MALEATE,371.27
1053751933,ACOSTA,KATHY,EXELON,10342.13
1053751933,ACOSTA,KATHY,FAMOTIDINE,215.3
1053751933,ACOSTA,KATHY,FLUCONAZOLE,144.19
1053751933,ACOSTA,KATHY,FLUOXETINE HCL,223.5
1053751933,ACOSTA,KATHY,FLUTICASONE PROPIONATE,292.32
1053751933,ACOSTA,KATHY,FUROSEMIDE,345.43
1053751933,ACOSTA,KATHY,GABAPENTIN,1173.99
1053751933,ACOSTA,KATHY,GENERLAC,104.3
1053751933,ACOSTA,KATHY,GLIMEPIRIDE,40.93
1053751933,ACOSTA,KATHY,GLIPIZIDE,141.63
1053751933,ACOSTA,KATHY,GLIPIZIDE-METFORMIN,550.16
1053751933,ACOSTA,KATHY,HYDRALAZINE HCL,237.96
1053751933,ACOSTA,KATHY,HYDROCHLOROTHIAZIDE,65.29
1053751933,ACOSTA,KATHY,IBUPROFEN,351.51
1053751933,ACOSTA,KATHY,ISOSORBIDE MONONITRATE ER,148.18
1053751933,ACOSTA,KATHY,KLOR-CON M10,169.41
1053751933,ACOSTA,KATHY,KLOR-CON M20,205.9
1053751933,ACOSTA,KATHY,LANTUS SOLOSTAR,9746.5
1053751933,ACOSTA,KATHY,LEVEMIR FLEXTOUCH,10017.0
1053751933,ACOSTA,KATHY,LEVOFLOXACIN,84.21
1053751933,ACOSTA,KATHY,LEVOTHYROXINE SODIUM,1223.2
1053751933,ACOSTA,KATHY,LIDOCAINE,2262.13
1053751933,ACOSTA,KATHY,LISINOPRIL,422.91
1053751933,ACOSTA,KATHY,LISINOPRIL-HYDROCHLOROTHIAZIDE,92.99
1053751933,ACOSTA,KATHY,LORAZEPAM,406.0
1053751933,ACOSTA,KATHY,LOSARTAN POTASSIUM,280.48
1053751933,ACOSTA,KATHY,LYRICA,15251.37
1053751933,ACOSTA,KATHY,MELOXICAM,133.73
1053751933,ACOSTA,KATHY,METFORMIN HCL,290.38
1053751933,ACOSTA,KATHY,METHYLPREDNISOLONE,1108.66
1053751933,ACOSTA,KATHY,METOLAZONE,530.82
1053751933,ACOSTA,KATHY,METOPROLOL SUCCINATE,684.15
1053751933,ACOSTA,KATHY,METOPROLOL TARTRATE,253.23
1053751933,ACOSTA,KATHY,MIRTAZAPINE,339.45
1053751933,ACOSTA,KATHY,MONTELUKAST SODIUM,380.52
1053751933,ACOSTA,KATHY,NEXIUM,15365.37
1053751933,ACOSTA,KATHY,NITROFURANTOIN,298.91
1053751933,ACOSTA,KATHY,NYSTATIN,665.59
1053751933,ACOSTA,KATHY,OMEPRAZOLE,377.23
1053751933,ACOSTA,KATHY,OXYBUTYNIN CHLORIDE,1074.86
1053751933,ACOSTA,KATHY,OXYBUTYNIN CHLORIDE ER,837.71
1053751933,ACOSTA,KATHY,PANTOPRAZOLE SODIUM,522.53
1053751933,ACOSTA,KATHY,POTASSIUM CHLORIDE,492.13
1053751933,ACOSTA,KATHY,PRAVASTATIN SODIUM,454.35
1053751933,ACOSTA,KATHY,PROAIR HFA,2886.4
1053751933,ACOSTA,KATHY,PROMETHAZINE HCL,157.73
1053751933,ACOSTA,KATHY,RISPERIDONE,116.76
1053751933,ACOSTA,KATHY,SERTRALINE HCL,65.13
1053751933,ACOSTA,KATHY,SIMVASTATIN,260.74
1053751933,ACOSTA,KATHY,SPIRONOLACTONE,341.82
1053751933,ACOSTA,KATHY,SULFAMETHOXAZOLE-TRIMETHOPRIM,112.76
1053751933,ACOSTA,KATHY,TAMSULOSIN HCL,361.43
1053751933,ACOSTA,KATHY,TEMAZEPAM,427.58
1053751933,ACOSTA,KATHY,TIZANIDINE HCL,1987.59
1053751933,ACOSTA,KATHY,TOPIRAMATE,134.78
1053751933,ACOSTA,KATHY,TRAMADOL HCL,774.2
1053751933,ACOSTA,KATHY,TRAZODONE HCL,423.05
1053751933,ACOSTA,KATHY,TRIBENZOR,3117.36
1053751933,ACOSTA,KATHY,VOLTAREN,2807.57
1053751933,ACOSTA,KATHY,ZOLPIDEM TARTRATE,314.63
1841553930,ACOSTA,KRISTY,AMLODIPINE BESYLATE,303.32
1841553930,ACOSTA,KRISTY,ATORVASTATIN CALCIUM,875.03
1841553930,ACOSTA,KRISTY,FUROSEMIDE,117.64
1841553930,ACOSTA,KRISTY,LISINOPRIL,75.9
1841553930,ACOSTA,KRISTY,LISINOPRIL-HYDROCHLOROTHIAZIDE,108.18
1841553930,ACOSTA,KRISTY,METFORMIN HCL,136.66
1841553930,ACOSTA,KRISTY,METOPROLOL SUCCINATE,954.48
1841553930,ACOSTA,KRISTY,METOPROLOL TARTRATE,114.46
1841553930,ACOSTA,KRISTY,NEXIUM,9790.99
1841553930,ACOSTA,KRISTY,TRAMADOL HCL,82.38
1518959154,ACOSTA,KYLE,ALCLOMETASONE DIPROPIONATE,2800.74
1518959154,ACOSTA,KYLE,AMOXICILLIN-CLAVULANATE POTASS,125.11
1518959154,ACOSTA,KYLE,CILOXAN,2791.18
1518959154,ACOSTA,KYLE,CIPROFLOXACIN HCL,744.66
1518959154,ACOSTA,KYLE,DOXYCYCLINE HYCLATE,810.75
1518959154,ACOSTA,KYLE,ERYTHROMYCIN,751.24
1518959154,ACOSTA,KYLE,NEOMYCIN-POLYMYXIN-DEXAMETH,5068.92
1518959154,ACOSTA,KYLE,OXYCODONE-ACETAMINOPHEN,451.54
1518959154,ACOSTA,KYLE,SULFAMETHOXAZOLE-TRIMETHOPRIM,94.52
1518959154,ACOSTA,KYLE,TOBRAMYCIN-DEXAMETHASONE,2249.81
1518959154,ACOSTA,KYLE,VIGAMOX,4443.15
1083969323,ACOSTA,LAZARO,AMOXICILLIN,56.98
1003019902,ACOSTA,LEALANI,CITALOPRAM HBR,297.56
1003019902,ACOSTA,LEALANI,CLONAZEPAM,156.56
1003019902,ACOSTA,LEALANI,DONEPEZIL HCL,7477.78
1003019902,ACOSTA,LEALANI,EXELON,32041.27
1003019902,ACOSTA,LEALANI,MEMANTINE HCL,853.05
1003019902,ACOSTA,LEALANI,MIRTAZAPINE,500.23
1003019902,ACOSTA,LEALANI,NAMENDA,7778.53
1003019902,ACOSTA,LEALANI,NAMENDA XR,40516.53
1003019902,ACOSTA,LEALANI,PAROXETINE HCL,124.51
1003019902,ACOSTA,LEALANI,SERTRALINE HCL,63.37
1003019902,ACOSTA,LEALANI,VENLAFAXINE HCL ER,1041.1
1467740381,ACOSTA,LETICIA,AMOXICILLIN,160.49
1467740381,ACOSTA,LETICIA,CLINDAMYCIN HCL,124.58
1467740381,ACOSTA,LETICIA,HYDROCODONE-ACETAMINOPHEN,85.74
1467740381,ACOSTA,LETICIA,PENICILLIN V POTASSIUM,79.2
1912194713,ACOSTA,LILLIAN,AZITHROMYCIN,163.72
1912194713,ACOSTA,LILLIAN,FLUTICASONE PROPIONATE,113.45
1912194713,ACOSTA,LILLIAN,NAPROXEN,75.28
1912194713,ACOSTA,LILLIAN,NITROFURANTOIN MONO-MACRO,290.89
1265401608,ACOSTA,LISA,ACYCLOVIR,1728.12
1265401608,ACOSTA,LISA,ANASTROZOLE,652.78
1265401608,ACOSTA,LISA,CIPROFLOXACIN HCL,79.07
1265401608,ACOSTA,LISA,CLOTRIMAZOLE,452.72
1265401608,ACOSTA,LISA,DEXAMETHASONE,305.94
1265401608,ACOSTA,LISA,EXEMESTANE,28452.51
1265401608,ACOSTA,LISA,HYDROCODONE-ACETAMINOPHEN,442.96
1265401608,ACOSTA,LISA,HYDROMORPHONE HCL,261.97
1265401608,ACOSTA,LISA,HYDROXYUREA,2025.18
1265401608,ACOSTA,LISA,IMBRUVICA,111367.48
1265401608,ACOSTA,LISA,LETROZOLE,1042.93
1265401608,ACOSTA,LISA,LIDOCAINE,4849.24
1265401608,ACOSTA,LISA,LIDOCAINE-PRILOCAINE,739.32
1265401608,ACOSTA,LISA,LORAZEPAM,68.12
1265401608,ACOSTA,LISA,OMEPRAZOLE,166.38
1265401608,ACOSTA,LISA,ONDANSETRON HCL,456.41
1265401608,ACOSTA,LISA,OXYCODONE HCL,2165.12
1265401608,ACOSTA,LISA,PREDNISONE,125.9
1265401608,ACOSTA,LISA,PROCHLORPERAZINE MALEATE,162.74
1265401608,ACOSTA,LISA,REVLIMID,290547.79
1265401608,ACOSTA,LISA,TAMOXIFEN CITRATE,1991.79
1528144219,ACOSTA,LOUIS,ALPRAZOLAM,15.06
1528144219,ACOSTA,LOUIS,AMLODIPINE BESYLATE,209.54
1528144219,ACOSTA,LOUIS,ATENOLOL,46.73
1528144219,ACOSTA,LOUIS,ATORVASTATIN CALCIUM,281.98
1528144219,ACOSTA,LOUIS,HYDROCHLOROTHIAZIDE,65.66
1528144219,ACOSTA,LOUIS,LEVOTHYROXINE SODIUM,264.11
1528144219,ACOSTA,LOUIS,LISINOPRIL,114.84
1528144219,ACOSTA,LOUIS,METFORMIN HCL,65.97
1528144219,ACOSTA,LOUIS,PRAVASTATIN SODIUM,487.86
1528144219,ACOSTA,LOUIS,SERTRALINE HCL,35.74
1528144219,ACOSTA,LOUIS,VESICARE,2876.02
1235140997,ACOSTA,LUIS,ACYCLOVIR,694.5
1235140997,ACOSTA,LUIS,CARBAMAZEPINE,1868.67
1235140997,ACOSTA,LUIS,CARBATROL,3616.35
1235140997,ACOSTA,LUIS,CARBIDOPA-LEVODOPA,692.8
1235140997,ACOSTA,LUIS,CARBIDOPA-LEVODOPA-ENTACAPONE,56075.39
1235140997,ACOSTA,LUIS,CITALOPRAM HBR,182.83
1235140997,ACOSTA,LUIS,CLONAZEPAM,425.03
1235140997,ACOSTA,LUIS,COPAXONE,65436.02
1235140997,ACOSTA,LUIS,DEPAKOTE,5019.31
1235140997,ACOSTA,LUIS,DONEPEZIL HCL,4252.87
1235140997,ACOSTA,LUIS,DULOXETINE HCL,14132.79
1235140997,ACOSTA,LUIS,ESCITALOPRAM OXALATE,274.1
1235140997,ACOSTA,LUIS,EXELON,54085.17
1235140997,ACOSTA,LUIS,FLUTICASONE PROPIONATE,117.37
1235140997,ACOSTA,LUIS,GABAPENTIN,3093.47
1235140997,ACOSTA,LUIS,GILENYA,71688.29
1235140997,ACOSTA,LUIS,KEPPRA,40029.6
1235140997,ACOSTA,LUIS,LAMOTRIGINE,190.84
1235140997,ACOSTA,LUIS,LEVETIRACETAM,1852.35
1235140997,ACOSTA,LUIS,LEVETIRACETAM ER,1511.49
1235140997,ACOSTA,LUIS,LIOTHYRONINE SODIUM,389.67
1235140997,ACOSTA,LUIS,LISINOPRIL,40.99
1235140997,ACOSTA,LUIS,LYRICA,76437.4
1235140997,ACOSTA,LUIS,METOPROLOL SUCCINATE,125.29
1235140997,ACOSTA,LUIS,MYRBETRIQ,9390.83
1235140997,ACOSTA,LUIS,NAMENDA,10103.91
1235140997,ACOSTA,LUIS,NAMENDA XR,72129.73
1235140997,ACOSTA,LUIS,NEUPRO,47212.63
1235140997,ACOSTA,LUIS,OXCARBAZEPINE,1911.92
1235140997,ACOSTA,LUIS,PRIMIDONE,543.66
1235140997,ACOSTA,LUIS,PROPRANOLOL HCL,824.05
1235140997,ACOSTA,LUIS,QUETIAPINE FUMARATE,1636.57
1235140997,ACOSTA,LUIS,REBIF,77190.8
1235140997,ACOSTA,LUIS,ROPINIROLE ER,9353.03
1235140997,ACOSTA,LUIS,ROPINIROLE HCL,1409.93
1235140997,ACOSTA,LUIS,SYMBICORT,3042.49
1235140997,ACOSTA,LUIS,TOLTERODINE TARTRATE ER,1988.18
1235140997,ACOSTA,LUIS,TOPIRAMATE,787.91
1235140997,ACOSTA,LUIS,VIMPAT,50449.64
1235140997,ACOSTA,LUIS,ZARONTIN,2556.28
1548220551,ACOSTA,LUIS,ACETAMINOPHEN-CODEINE,292.79
1548220551,ACOSTA,LUIS,ADVAIR DISKUS,4727.18
1548220551,ACOSTA,LUIS,ALENDRONATE SODIUM,710.29
1548220551,ACOSTA,LUIS,ALLOPURINOL,714.71
1548220551,ACOSTA,LUIS,ALPRAZOLAM,113.6
1548220551,ACOSTA,LUIS,AMIODARONE HCL,121.62
1548220551,ACOSTA,LUIS,AMITRIPTYLINE HCL,122.17
1548220551,ACOSTA,LUIS,AMLODIPINE BESYLATE,3415.53
1548220551,ACOSTA,LUIS,AMLODIPINE BESYLATE-BENAZEPRIL,337.2
1548220551,ACOSTA,LUIS,ATENOLOL,919.48
1548220551,ACOSTA,LUIS,ATORVASTATIN CALCIUM,8318.32
1548220551,ACOSTA,LUIS,AZITHROMYCIN,263.78
1548220551,ACOSTA,LUIS,BACLOFEN,172.86
1548220551,ACOSTA,LUIS,BD ULTRA-FINE PEN NEEDLE,440.74
1548220551,ACOSTA,LUIS,BENAZEPRIL HCL,1335.65
1548220551,ACOSTA,LUIS,BYSTOLIC,3021.55
1548220551,ACOSTA,LUIS,CARVEDILOL,217.28
